module collect_apcaccess.go

go 1.20

require (
	github.com/prometheus/client_golang v1.14.0
	github.com/prometheus/common v0.41.0
	github.com/zserge/atomicwriter v0.0.0-20150502133627-3b3becdd12e5
)

require (
	github.com/beorn7/perks v1.0.1 // indirect
	github.com/cespare/xxhash/v2 v2.1.2 // indirect
	github.com/golang/protobuf v1.5.2 // indirect
	github.com/matttproud/golang_protobuf_extensions v1.0.4 // indirect
	github.com/prometheus/client_model v0.3.0 // indirect
	github.com/prometheus/procfs v0.8.0 // indirect
	golang.org/x/sys v0.5.0 // indirect
	google.golang.org/protobuf v1.28.1 // indirect
)
